1;105.90;2019;1
2;29.95;2019;2
3;69.90;2019;3
4;99.90;2019;4
5;219.90;2019;5
6;998.90;2019;6
7;169.90;2019;7
8;709.00;2019;8
9;199.00;2019;9
10;1579.90;2019;10
11;279.90;2019;11
12;99.00;2019;12
13;39.95;2019;13
14;89.95;2019;14
15;61.90;2019;15
16;80.90;2019;16
17;129.90;2019;17
18;99.90;2019;18
19;70.80;2019;19
20;279.90;2019;20
21;209.00;2019;21
22;149.90;2019;22
23;72.00;2019;23
24;295.90;2019;24
25;199.00;2019;25
26;139.90;2019;26
27;329.90;2019;27
28;129.90;2019;28
29;399.00;2019;29
30;428.00;2019;30
